{
    "$schema": "https://schema.management.azure.com/schemas/2015-01-01/deploymentParameters.json#",
    "contentVersion": "1.0.0.0",
  "parameters": {
    "adminUsername": {
      "value": "agent"
    },
    "dnsNameForPublicIP": {
      "value": "yourdnshere"
    },
    "customData": {
      "value": "#!/bin/bash \nwget https://gitlab.com/qatraining/qamsdevops/raw/master/scripts/setupvstsagent.sh \nchmod +x setupvstsagent.sh \n./setupvstsagent.sh agent [url] [PAT] rmtestagent \n"
    }
  }
}
